{
    "id": "136",
    "latitude": "46.341",
    "longitude": "10.74463",
    "forecasts": [
        {
            "date": "Thu 08 Sep, 2016",
            "temperature": "21",
            "condition": "Sunny"
        },
        {
            "date": "Fri 09 Sep, 2016",
            "temperature": "21",
            "condition": "Sunny"
        },
        {
            "date": "Sat 10 Sep, 2016",
            "temperature": "21",
            "condition": "Patchy rain nearby"
        },
        {
            "date": "Sun 11 Sep, 2016",
            "temperature": "21",
            "condition": "Sunny"
        },
        {
            "date": "Mon 12 Sep, 2016",
            "temperature": "20",
            "condition": "Thundery outbreaks in nearby"
        },
        {
            "date": "Tue 13 Sep, 2016",
            "temperature": "22",
            "condition": "Sunny"
        },
        {
            "date": "Wed 14 Sep, 2016",
            "temperature": "24",
            "condition": "Sunny"
        },
        {
            "date": "Thu 15 Sep, 2016",
            "temperature": "23",
            "condition": "Sunny"
        },
        {
            "date": "Fri 16 Sep, 2016",
            "temperature": "23",
            "condition": "Sunny"
        },
        {
            "date": "Sat 17 Sep, 2016",
            "temperature": "21",
            "condition": "Sunny"
        },
        {
            "date": "Sun 18 Sep, 2016",
            "temperature": "19",
            "condition": "Sunny"
        },
        {
            "date": "Mon 19 Sep, 2016",
            "temperature": "16",
            "condition": "Torrential rain shower"
        },
        {
            "date": "Tue 20 Sep, 2016",
            "temperature": "14",
            "condition": "Patchy light rain in area with thunder"
        },
        {
            "date": "Wed 21 Sep, 2016",
            "temperature": "12",
            "condition": "Patchy rain nearby"
        }
    ],
    "url": "http://www.worldweatheronline.com/v2/weather.aspx?q=46.341,10.74463&day=20"
}