{
    "id": "137",
    "latitude": "46.32583",
    "longitude": "9.86572",
    "forecasts": [
        {
            "date": "Thu 08 Sep, 2016",
            "temperature": "19",
            "condition": "Partly Cloudy "
        },
        {
            "date": "Fri 09 Sep, 2016",
            "temperature": "19",
            "condition": "Partly Cloudy "
        },
        {
            "date": "Sat 10 Sep, 2016",
            "temperature": "18",
            "condition": "Patchy light rain in area with thunder"
        },
        {
            "date": "Sun 11 Sep, 2016",
            "temperature": "18",
            "condition": "Patchy light rain in area with thunder"
        },
        {
            "date": "Mon 12 Sep, 2016",
            "temperature": "17",
            "condition": "Patchy light rain in area with thunder"
        },
        {
            "date": "Tue 13 Sep, 2016",
            "temperature": "19",
            "condition": "Sunny"
        },
        {
            "date": "Wed 14 Sep, 2016",
            "temperature": "21",
            "condition": "Sunny"
        },
        {
            "date": "Thu 15 Sep, 2016",
            "temperature": "19",
            "condition": "Patchy light rain in area with thunder"
        },
        {
            "date": "Fri 16 Sep, 2016",
            "temperature": "20",
            "condition": "Sunny"
        },
        {
            "date": "Sat 17 Sep, 2016",
            "temperature": "17",
            "condition": "Patchy rain nearby"
        },
        {
            "date": "Sun 18 Sep, 2016",
            "temperature": "15",
            "condition": "Thundery outbreaks in nearby"
        },
        {
            "date": "Mon 19 Sep, 2016",
            "temperature": "13",
            "condition": "Moderate or heavy rain in area with thunder"
        },
        {
            "date": "Tue 20 Sep, 2016",
            "temperature": "12",
            "condition": "Patchy light rain in area with thunder"
        },
        {
            "date": "Wed 21 Sep, 2016",
            "temperature": "9",
            "condition": "Patchy light rain"
        }
    ],
    "url": "http://www.worldweatheronline.com/v2/weather.aspx?q=46.32583,9.86572&day=20"
}