{
    "id": "149",
    "latitude": "47.5114",
    "longitude": "3.27393",
    "forecasts": [
        {
            "date": "Thu 08 Sep, 2016",
            "temperature": "26",
            "condition": "Sunny"
        },
        {
            "date": "Fri 09 Sep, 2016",
            "temperature": "27",
            "condition": "Sunny"
        },
        {
            "date": "Sat 10 Sep, 2016",
            "temperature": "26",
            "condition": "Sunny"
        },
        {
            "date": "Sun 11 Sep, 2016",
            "temperature": "25",
            "condition": "Cloudy "
        },
        {
            "date": "Mon 12 Sep, 2016",
            "temperature": "28",
            "condition": "Sunny"
        },
        {
            "date": "Tue 13 Sep, 2016",
            "temperature": "33",
            "condition": "Partly Cloudy "
        },
        {
            "date": "Wed 14 Sep, 2016",
            "temperature": "31",
            "condition": "Sunny"
        },
        {
            "date": "Thu 15 Sep, 2016",
            "temperature": "28",
            "condition": "Sunny"
        },
        {
            "date": "Fri 16 Sep, 2016",
            "temperature": "22",
            "condition": "Sunny"
        },
        {
            "date": "Sat 17 Sep, 2016",
            "temperature": "20",
            "condition": "Partly Cloudy "
        },
        {
            "date": "Sun 18 Sep, 2016",
            "temperature": "26",
            "condition": "Light rain shower"
        },
        {
            "date": "Mon 19 Sep, 2016",
            "temperature": "20",
            "condition": "Light rain shower"
        },
        {
            "date": "Tue 20 Sep, 2016",
            "temperature": "19",
            "condition": "Sunny"
        },
        {
            "date": "Wed 21 Sep, 2016",
            "temperature": "14",
            "condition": "Light rain"
        }
    ],
    "url": "http://www.worldweatheronline.com/v2/weather.aspx?q=47.5114,3.27393&day=20"
}