{
    "id": "219",
    "latitude": "41.83043",
    "longitude": "24.93896",
    "forecasts": [
        {
            "date": "Thu 08 Sep, 2016",
            "temperature": "31",
            "condition": "Partly Cloudy "
        },
        {
            "date": "Fri 09 Sep, 2016",
            "temperature": "29",
            "condition": "Thundery outbreaks in nearby"
        },
        {
            "date": "Sat 10 Sep, 2016",
            "temperature": "30",
            "condition": "Sunny"
        },
        {
            "date": "Sun 11 Sep, 2016",
            "temperature": "24",
            "condition": "Light rain"
        },
        {
            "date": "Mon 12 Sep, 2016",
            "temperature": "28",
            "condition": "Sunny"
        },
        {
            "date": "Tue 13 Sep, 2016",
            "temperature": "28",
            "condition": "Sunny"
        },
        {
            "date": "Wed 14 Sep, 2016",
            "temperature": "28",
            "condition": "Sunny"
        },
        {
            "date": "Thu 15 Sep, 2016",
            "temperature": "29",
            "condition": "Sunny"
        },
        {
            "date": "Fri 16 Sep, 2016",
            "temperature": "30",
            "condition": "Sunny"
        },
        {
            "date": "Sat 17 Sep, 2016",
            "temperature": "31",
            "condition": "Sunny"
        },
        {
            "date": "Sun 18 Sep, 2016",
            "temperature": "29",
            "condition": "Sunny"
        },
        {
            "date": "Mon 19 Sep, 2016",
            "temperature": "27",
            "condition": "Sunny"
        },
        {
            "date": "Tue 20 Sep, 2016",
            "temperature": "30",
            "condition": "Sunny"
        },
        {
            "date": "Wed 21 Sep, 2016",
            "temperature": "32",
            "condition": "Patchy light rain in area with thunder"
        }
    ],
    "url": "http://www.worldweatheronline.com/v2/weather.aspx?q=41.83043,24.93896&day=20"
}