{
    "id": "238",
    "latitude": "45.22244",
    "longitude": "18.50098",
    "forecasts": [
        {
            "date": "Thu 08 Sep, 2016",
            "temperature": "31",
            "condition": "Partly Cloudy "
        },
        {
            "date": "Fri 09 Sep, 2016",
            "temperature": "33",
            "condition": "Sunny"
        },
        {
            "date": "Sat 10 Sep, 2016",
            "temperature": "32",
            "condition": "Partly Cloudy "
        },
        {
            "date": "Sun 11 Sep, 2016",
            "temperature": "33",
            "condition": "Thundery outbreaks in nearby"
        },
        {
            "date": "Mon 12 Sep, 2016",
            "temperature": "33",
            "condition": "Sunny"
        },
        {
            "date": "Tue 13 Sep, 2016",
            "temperature": "34",
            "condition": "Partly Cloudy "
        },
        {
            "date": "Wed 14 Sep, 2016",
            "temperature": "34",
            "condition": "Sunny"
        },
        {
            "date": "Thu 15 Sep, 2016",
            "temperature": "35",
            "condition": "Sunny"
        },
        {
            "date": "Fri 16 Sep, 2016",
            "temperature": "35",
            "condition": "Sunny"
        },
        {
            "date": "Sat 17 Sep, 2016",
            "temperature": "34",
            "condition": "Sunny"
        },
        {
            "date": "Sun 18 Sep, 2016",
            "temperature": "34",
            "condition": "Sunny"
        },
        {
            "date": "Mon 19 Sep, 2016",
            "temperature": "28",
            "condition": "Patchy rain nearby"
        },
        {
            "date": "Tue 20 Sep, 2016",
            "temperature": "26",
            "condition": "Torrential rain shower"
        },
        {
            "date": "Wed 21 Sep, 2016",
            "temperature": "27",
            "condition": "Partly Cloudy "
        }
    ],
    "url": "http://www.worldweatheronline.com/v2/weather.aspx?q=45.22244,18.50098&day=20"
}