{
    "id": "241",
    "latitude": "43.46264",
    "longitude": "20.14893",
    "forecasts": [
        {
            "date": "Thu 08 Sep, 2016",
            "temperature": "22",
            "condition": "Patchy rain nearby"
        },
        {
            "date": "Fri 09 Sep, 2016",
            "temperature": "19",
            "condition": "Light rain shower"
        },
        {
            "date": "Sat 10 Sep, 2016",
            "temperature": "22",
            "condition": "Light rain shower"
        },
        {
            "date": "Sun 11 Sep, 2016",
            "temperature": "22",
            "condition": "Moderate or heavy rain shower"
        },
        {
            "date": "Mon 12 Sep, 2016",
            "temperature": "24",
            "condition": "Thundery outbreaks in nearby"
        },
        {
            "date": "Tue 13 Sep, 2016",
            "temperature": "24",
            "condition": "Sunny"
        },
        {
            "date": "Wed 14 Sep, 2016",
            "temperature": "23",
            "condition": "Patchy rain nearby"
        },
        {
            "date": "Thu 15 Sep, 2016",
            "temperature": "23",
            "condition": "Sunny"
        },
        {
            "date": "Fri 16 Sep, 2016",
            "temperature": "24",
            "condition": "Patchy rain nearby"
        },
        {
            "date": "Sat 17 Sep, 2016",
            "temperature": "24",
            "condition": "Sunny"
        },
        {
            "date": "Sun 18 Sep, 2016",
            "temperature": "25",
            "condition": "Sunny"
        },
        {
            "date": "Mon 19 Sep, 2016",
            "temperature": "18",
            "condition": "Patchy light rain"
        },
        {
            "date": "Tue 20 Sep, 2016",
            "temperature": "23",
            "condition": "Patchy rain nearby"
        },
        {
            "date": "Wed 21 Sep, 2016",
            "temperature": "18",
            "condition": "Light rain shower"
        }
    ],
    "url": "http://www.worldweatheronline.com/v2/weather.aspx?q=43.46264,20.14893&day=20"
}