{
    "id": "263",
    "latitude": "47.27341",
    "longitude": "25.00488",
    "forecasts": [
        {
            "date": "Thu 08 Sep, 2016",
            "temperature": "32",
            "condition": "Sunny"
        },
        {
            "date": "Fri 09 Sep, 2016",
            "temperature": "33",
            "condition": "Cloudy "
        },
        {
            "date": "Sat 10 Sep, 2016",
            "temperature": "31",
            "condition": "Partly Cloudy "
        },
        {
            "date": "Sun 11 Sep, 2016",
            "temperature": "32",
            "condition": "Sunny"
        },
        {
            "date": "Mon 12 Sep, 2016",
            "temperature": "33",
            "condition": "Sunny"
        },
        {
            "date": "Tue 13 Sep, 2016",
            "temperature": "33",
            "condition": "Sunny"
        },
        {
            "date": "Wed 14 Sep, 2016",
            "temperature": "33",
            "condition": "Sunny"
        },
        {
            "date": "Thu 15 Sep, 2016",
            "temperature": "33",
            "condition": "Sunny"
        },
        {
            "date": "Fri 16 Sep, 2016",
            "temperature": "34",
            "condition": "Sunny"
        },
        {
            "date": "Sat 17 Sep, 2016",
            "temperature": "30",
            "condition": "Partly Cloudy "
        },
        {
            "date": "Sun 18 Sep, 2016",
            "temperature": "28",
            "condition": "Sunny"
        },
        {
            "date": "Mon 19 Sep, 2016",
            "temperature": "27",
            "condition": "Sunny"
        },
        {
            "date": "Tue 20 Sep, 2016",
            "temperature": "20",
            "condition": "Patchy light rain"
        },
        {
            "date": "Wed 21 Sep, 2016",
            "temperature": "20",
            "condition": "Moderate rain at times"
        }
    ],
    "url": "http://www.worldweatheronline.com/v2/weather.aspx?q=47.27341,25.00488&day=20"
}