{
    "id": "293",
    "latitude": "36.67992",
    "longitude": "24.37317",
    "forecasts": [
        {
            "date": "Thu 08 Sep, 2016",
            "temperature": "31",
            "condition": "Sunny"
        },
        {
            "date": "Fri 09 Sep, 2016",
            "temperature": "31",
            "condition": "Sunny"
        },
        {
            "date": "Sat 10 Sep, 2016",
            "temperature": "29",
            "condition": "Sunny"
        },
        {
            "date": "Sun 11 Sep, 2016",
            "temperature": "29",
            "condition": "Sunny"
        },
        {
            "date": "Mon 12 Sep, 2016",
            "temperature": "28",
            "condition": "Sunny"
        },
        {
            "date": "Tue 13 Sep, 2016",
            "temperature": "28",
            "condition": "Sunny"
        },
        {
            "date": "Wed 14 Sep, 2016",
            "temperature": "28",
            "condition": "Sunny"
        },
        {
            "date": "Thu 15 Sep, 2016",
            "temperature": "28",
            "condition": "Sunny"
        },
        {
            "date": "Fri 16 Sep, 2016",
            "temperature": "28",
            "condition": "Sunny"
        },
        {
            "date": "Sat 17 Sep, 2016",
            "temperature": "28",
            "condition": "Sunny"
        },
        {
            "date": "Sun 18 Sep, 2016",
            "temperature": "27",
            "condition": "Sunny"
        },
        {
            "date": "Mon 19 Sep, 2016",
            "temperature": "28",
            "condition": "Sunny"
        },
        {
            "date": "Tue 20 Sep, 2016",
            "temperature": "27",
            "condition": "Sunny"
        },
        {
            "date": "Wed 21 Sep, 2016",
            "temperature": "27",
            "condition": "Sunny"
        }
    ],
    "url": "http://www.worldweatheronline.com/v2/weather.aspx?q=36.67992,24.37317&day=20"
}