{
    "id": "37",
    "latitude": "39.09263",
    "longitude": "-6.8335",
    "forecasts": [
        {
            "date": "Thu 08 Sep, 2016",
            "temperature": "35",
            "condition": "Sunny"
        },
        {
            "date": "Fri 09 Sep, 2016",
            "temperature": "33",
            "condition": "Sunny"
        },
        {
            "date": "Sat 10 Sep, 2016",
            "temperature": "34",
            "condition": "Sunny"
        },
        {
            "date": "Sun 11 Sep, 2016",
            "temperature": "36",
            "condition": "Sunny"
        },
        {
            "date": "Mon 12 Sep, 2016",
            "temperature": "36",
            "condition": "Sunny"
        },
        {
            "date": "Tue 13 Sep, 2016",
            "temperature": "35",
            "condition": "Sunny"
        },
        {
            "date": "Wed 14 Sep, 2016",
            "temperature": "26",
            "condition": "Light rain shower"
        },
        {
            "date": "Thu 15 Sep, 2016",
            "temperature": "30",
            "condition": "Sunny"
        },
        {
            "date": "Fri 16 Sep, 2016",
            "temperature": "30",
            "condition": "Patchy rain nearby"
        },
        {
            "date": "Sat 17 Sep, 2016",
            "temperature": "32",
            "condition": "Partly Cloudy "
        },
        {
            "date": "Sun 18 Sep, 2016",
            "temperature": "26",
            "condition": "Sunny"
        },
        {
            "date": "Mon 19 Sep, 2016",
            "temperature": "28",
            "condition": "Sunny"
        },
        {
            "date": "Tue 20 Sep, 2016",
            "temperature": "30",
            "condition": "Sunny"
        },
        {
            "date": "Wed 21 Sep, 2016",
            "temperature": "30",
            "condition": "Sunny"
        }
    ],
    "url": "http://www.worldweatheronline.com/v2/weather.aspx?q=39.09263,-6.8335&day=20"
}