{
    "id": "40",
    "latitude": "40.50218",
    "longitude": "-6.05347",
    "forecasts": [
        {
            "date": "Thu 08 Sep, 2016",
            "temperature": "31",
            "condition": "Sunny"
        },
        {
            "date": "Fri 09 Sep, 2016",
            "temperature": "30",
            "condition": "Sunny"
        },
        {
            "date": "Sat 10 Sep, 2016",
            "temperature": "30",
            "condition": "Sunny"
        },
        {
            "date": "Sun 11 Sep, 2016",
            "temperature": "31",
            "condition": "Sunny"
        },
        {
            "date": "Mon 12 Sep, 2016",
            "temperature": "30",
            "condition": "Sunny"
        },
        {
            "date": "Tue 13 Sep, 2016",
            "temperature": "30",
            "condition": "Patchy rain nearby"
        },
        {
            "date": "Wed 14 Sep, 2016",
            "temperature": "25",
            "condition": "Patchy light rain in area with thunder"
        },
        {
            "date": "Thu 15 Sep, 2016",
            "temperature": "23",
            "condition": "Moderate or heavy rain shower"
        },
        {
            "date": "Fri 16 Sep, 2016",
            "temperature": "25",
            "condition": "Moderate or heavy rain shower"
        },
        {
            "date": "Sat 17 Sep, 2016",
            "temperature": "25",
            "condition": "Patchy rain nearby"
        },
        {
            "date": "Sun 18 Sep, 2016",
            "temperature": "20",
            "condition": "Partly Cloudy "
        },
        {
            "date": "Mon 19 Sep, 2016",
            "temperature": "21",
            "condition": "Sunny"
        },
        {
            "date": "Tue 20 Sep, 2016",
            "temperature": "23",
            "condition": "Sunny"
        },
        {
            "date": "Wed 21 Sep, 2016",
            "temperature": "23",
            "condition": "Sunny"
        }
    ],
    "url": "http://www.worldweatheronline.com/v2/weather.aspx?q=40.50218,-6.05347&day=20"
}