{
    "id": "47",
    "latitude": "41.71073",
    "longitude": "-6.39404",
    "forecasts": [
        {
            "date": "Thu 08 Sep, 2016",
            "temperature": "31",
            "condition": "Sunny"
        },
        {
            "date": "Fri 09 Sep, 2016",
            "temperature": "31",
            "condition": "Sunny"
        },
        {
            "date": "Sat 10 Sep, 2016",
            "temperature": "30",
            "condition": "Sunny"
        },
        {
            "date": "Sun 11 Sep, 2016",
            "temperature": "30",
            "condition": "Sunny"
        },
        {
            "date": "Mon 12 Sep, 2016",
            "temperature": "32",
            "condition": "Sunny"
        },
        {
            "date": "Tue 13 Sep, 2016",
            "temperature": "32",
            "condition": "Partly Cloudy "
        },
        {
            "date": "Wed 14 Sep, 2016",
            "temperature": "29",
            "condition": "Thundery outbreaks in nearby"
        },
        {
            "date": "Thu 15 Sep, 2016",
            "temperature": "27",
            "condition": "Patchy light rain"
        },
        {
            "date": "Fri 16 Sep, 2016",
            "temperature": "29",
            "condition": "Patchy light rain in area with thunder"
        },
        {
            "date": "Sat 17 Sep, 2016",
            "temperature": "27",
            "condition": "Sunny"
        },
        {
            "date": "Sun 18 Sep, 2016",
            "temperature": "21",
            "condition": "Partly Cloudy "
        },
        {
            "date": "Mon 19 Sep, 2016",
            "temperature": "22",
            "condition": "Partly Cloudy "
        },
        {
            "date": "Tue 20 Sep, 2016",
            "temperature": "22",
            "condition": "Sunny"
        },
        {
            "date": "Wed 21 Sep, 2016",
            "temperature": "22",
            "condition": "Sunny"
        }
    ],
    "url": "http://www.worldweatheronline.com/v2/weather.aspx?q=41.71073,-6.39404&day=20"
}