{
    "id": "49",
    "latitude": "42.89697",
    "longitude": "-7.6355",
    "forecasts": [
        {
            "date": "Thu 08 Sep, 2016",
            "temperature": "26",
            "condition": "Sunny"
        },
        {
            "date": "Fri 09 Sep, 2016",
            "temperature": "28",
            "condition": "Sunny"
        },
        {
            "date": "Sat 10 Sep, 2016",
            "temperature": "25",
            "condition": "Overcast "
        },
        {
            "date": "Sun 11 Sep, 2016",
            "temperature": "30",
            "condition": "Sunny"
        },
        {
            "date": "Mon 12 Sep, 2016",
            "temperature": "27",
            "condition": "Sunny"
        },
        {
            "date": "Tue 13 Sep, 2016",
            "temperature": "30",
            "condition": "Patchy rain nearby"
        },
        {
            "date": "Wed 14 Sep, 2016",
            "temperature": "32",
            "condition": "Sunny"
        },
        {
            "date": "Thu 15 Sep, 2016",
            "temperature": "27",
            "condition": "Thundery outbreaks in nearby"
        },
        {
            "date": "Fri 16 Sep, 2016",
            "temperature": "28",
            "condition": "Patchy light rain in area with thunder"
        },
        {
            "date": "Sat 17 Sep, 2016",
            "temperature": "25",
            "condition": "Sunny"
        },
        {
            "date": "Sun 18 Sep, 2016",
            "temperature": "21",
            "condition": "Cloudy "
        },
        {
            "date": "Mon 19 Sep, 2016",
            "temperature": "19",
            "condition": "Patchy rain nearby"
        },
        {
            "date": "Tue 20 Sep, 2016",
            "temperature": "24",
            "condition": "Sunny"
        },
        {
            "date": "Wed 21 Sep, 2016",
            "temperature": "19",
            "condition": "Patchy light drizzle"
        }
    ],
    "url": "http://www.worldweatheronline.com/v2/weather.aspx?q=42.89697,-7.6355&day=20"
}