{
    "id": "51",
    "latitude": "43.48967",
    "longitude": "-6.58081",
    "forecasts": [
        {
            "date": "Thu 08 Sep, 2016",
            "temperature": "20",
            "condition": "Patchy rain nearby"
        },
        {
            "date": "Fri 09 Sep, 2016",
            "temperature": "26",
            "condition": "Sunny"
        },
        {
            "date": "Sat 10 Sep, 2016",
            "temperature": "27",
            "condition": "Partly Cloudy "
        },
        {
            "date": "Sun 11 Sep, 2016",
            "temperature": "29",
            "condition": "Sunny"
        },
        {
            "date": "Mon 12 Sep, 2016",
            "temperature": "30",
            "condition": "Sunny"
        },
        {
            "date": "Tue 13 Sep, 2016",
            "temperature": "27",
            "condition": "Sunny"
        },
        {
            "date": "Wed 14 Sep, 2016",
            "temperature": "29",
            "condition": "Sunny"
        },
        {
            "date": "Thu 15 Sep, 2016",
            "temperature": "27",
            "condition": "Thundery outbreaks in nearby"
        },
        {
            "date": "Fri 16 Sep, 2016",
            "temperature": "28",
            "condition": "Thundery outbreaks in nearby"
        },
        {
            "date": "Sat 17 Sep, 2016",
            "temperature": "20",
            "condition": "Cloudy "
        },
        {
            "date": "Sun 18 Sep, 2016",
            "temperature": "19",
            "condition": "Light rain shower"
        },
        {
            "date": "Mon 19 Sep, 2016",
            "temperature": "17",
            "condition": "Patchy light rain"
        },
        {
            "date": "Tue 20 Sep, 2016",
            "temperature": "23",
            "condition": "Sunny"
        },
        {
            "date": "Wed 21 Sep, 2016",
            "temperature": "18",
            "condition": "Patchy light rain"
        }
    ],
    "url": "http://www.worldweatheronline.com/v2/weather.aspx?q=43.48967,-6.58081&day=20"
}