{
    "id": "57",
    "latitude": "42.37972",
    "longitude": "1.82373",
    "forecasts": [
        {
            "date": "Thu 08 Sep, 2016",
            "temperature": "23",
            "condition": "Sunny"
        },
        {
            "date": "Fri 09 Sep, 2016",
            "temperature": "22",
            "condition": "Patchy rain nearby"
        },
        {
            "date": "Sat 10 Sep, 2016",
            "temperature": "22",
            "condition": "Patchy light rain in area with thunder"
        },
        {
            "date": "Sun 11 Sep, 2016",
            "temperature": "22",
            "condition": "Patchy rain nearby"
        },
        {
            "date": "Mon 12 Sep, 2016",
            "temperature": "23",
            "condition": "Sunny"
        },
        {
            "date": "Tue 13 Sep, 2016",
            "temperature": "23",
            "condition": "Sunny"
        },
        {
            "date": "Wed 14 Sep, 2016",
            "temperature": "25",
            "condition": "Sunny"
        },
        {
            "date": "Thu 15 Sep, 2016",
            "temperature": "25",
            "condition": "Sunny"
        },
        {
            "date": "Fri 16 Sep, 2016",
            "temperature": "25",
            "condition": "Patchy rain nearby"
        },
        {
            "date": "Sat 17 Sep, 2016",
            "temperature": "23",
            "condition": "Sunny"
        },
        {
            "date": "Sun 18 Sep, 2016",
            "temperature": "20",
            "condition": "Patchy rain nearby"
        },
        {
            "date": "Mon 19 Sep, 2016",
            "temperature": "15",
            "condition": "Light rain shower"
        },
        {
            "date": "Tue 20 Sep, 2016",
            "temperature": "16",
            "condition": "Sunny"
        },
        {
            "date": "Wed 21 Sep, 2016",
            "temperature": "18",
            "condition": "Sunny"
        }
    ],
    "url": "http://www.worldweatheronline.com/v2/weather.aspx?q=42.37972,1.82373&day=20"
}