{
    "id": "74",
    "latitude": "44.52478",
    "longitude": "4.20776",
    "forecasts": [
        {
            "date": "Thu 08 Sep, 2016",
            "temperature": "31",
            "condition": "Sunny"
        },
        {
            "date": "Fri 09 Sep, 2016",
            "temperature": "30",
            "condition": "Sunny"
        },
        {
            "date": "Sat 10 Sep, 2016",
            "temperature": "28",
            "condition": "Sunny"
        },
        {
            "date": "Sun 11 Sep, 2016",
            "temperature": "28",
            "condition": "Sunny"
        },
        {
            "date": "Mon 12 Sep, 2016",
            "temperature": "32",
            "condition": "Sunny"
        },
        {
            "date": "Tue 13 Sep, 2016",
            "temperature": "28",
            "condition": "Sunny"
        },
        {
            "date": "Wed 14 Sep, 2016",
            "temperature": "28",
            "condition": "Sunny"
        },
        {
            "date": "Thu 15 Sep, 2016",
            "temperature": "27",
            "condition": "Sunny"
        },
        {
            "date": "Fri 16 Sep, 2016",
            "temperature": "23",
            "condition": "Sunny"
        },
        {
            "date": "Sat 17 Sep, 2016",
            "temperature": "20",
            "condition": "Sunny"
        },
        {
            "date": "Sun 18 Sep, 2016",
            "temperature": "26",
            "condition": "Light rain shower"
        },
        {
            "date": "Mon 19 Sep, 2016",
            "temperature": "22",
            "condition": "Moderate or heavy rain shower"
        },
        {
            "date": "Tue 20 Sep, 2016",
            "temperature": "17",
            "condition": "Sunny"
        },
        {
            "date": "Wed 21 Sep, 2016",
            "temperature": "26",
            "condition": "Sunny"
        }
    ],
    "url": "http://www.worldweatheronline.com/v2/weather.aspx?q=44.52478,4.20776&day=20"
}